example/ver_alu/waveform.vcd
$version Generated by VerilatedVcd $end
$timescale 1ps $end

 $scope module TOP $end
  $var wire  6 + a_in [5:0] $end
  $var wire  6 , b_in [5:0] $end
  $var wire  1 ( clk $end
  $var wire  1 - in_valid $end
  $var wire  2 * op_in [1:0] $end
  $var wire  6 . out [5:0] $end
  $var wire  1 / out_valid $end
  $var wire  1 ) rst $end
  $scope module alu $end
   $var wire 32 0 WIDTH [31:0] $end
   $var wire  6 + a_in [5:0] $end
   $var wire  6 $ a_in_r [5:0] $end
   $var wire  6 , b_in [5:0] $end
   $var wire  6 % b_in_r [5:0] $end
   $var wire  1 ( clk $end
   $var wire  1 - in_valid $end
   $var wire  1 & in_valid_r $end
   $var wire  2 * op_in [1:0] $end
   $var wire  2 # op_in_r [1:0] $end
   $var wire  6 . out [5:0] $end
   $var wire  1 / out_valid $end
   $var wire  6 ' result [5:0] $end
   $var wire  1 ) rst $end
  $upscope $end
 $upscope $end
$enddefinitions $end


#0
b11 #
b010011 $
b100001 %
1&
b000000 '
1(
0)
b10 *
b100100 +
b111000 ,
0-
b110110 .
0/
b00000000000000000000000000000110 0
#1
0(
#2
b10 #
b100100 $
b111000 %
0&
1(
b000000 .
1/
#3
b00 #
b000000 $
b000000 %
0(
1)
0/
#4
1(
#5
0(
#6
b10 #
b100100 $
b111000 %
1(
0)
#7
0(
#8
1(
b01 *
b010100 +
b000011 ,
1-
#9
0(
#10
b01 #
b010100 $
b000011 %
1&
b010111 '
1(
0-
#11
0(
#12
0&
b000000 '
1(
b010111 .
1/
#13
0(
#14
1(
b000000 .
0/
#15
0(
#16
1(
#17
0(
#18
1(
b001011 +
b000001 ,
1-
#19
0(
#20
b001011 $
b000001 %
1&
b001100 '
1(
0-
#21
0(
#22
0&
b000000 '
1(
b001100 .
1/
#23
0(
#24
1(
b000000 .
0/
#25
0(
#26
1(
#27
0(
#28
1(
b010000 +
b000011 ,
1-
#29
0(
#30
b010000 $
b000011 %
1&
b010011 '
1(
0-
#31
0(
#32
0&
b000000 '
1(
b010011 .
1/
#33
0(
#34
1(
b000000 .
0/
#35
0(
#36
1(
#37
0(
#38
1(
b010010 +
b000001 ,
1-
#39
0(
#40
b010010 $
b000001 %
1&
b010011 '
1(
0-
#41
0(
#42
0&
b000000 '
1(
b010011 .
1/
#43
0(
#44
1(
b000000 .
0/
#45
0(
#46
1(
#47
0(
#48
1(
b10 *
b001101 +
b000101 ,
1-
#49
0(
#50
b10 #
b001101 $
b000101 %
1&
b001000 '
1(
0-
#51
0(
#52
0&
b000000 '
1(
b001000 .
1/
#53
0(
#54
1(
b000000 .
0/
#55
0(
#56
1(
#57
0(
#58
1(
b01 *
b010011 +
b000000 ,
1-
#59
0(
#60
b01 #
b010011 $
b000000 %
1&
b010011 '
1(
0-
#61
0(
#62
0&
b000000 '
1(
b010011 .
1/
#63
0(
#64
1(
b000000 .
0/
#65
0(
#66
1(
#67
0(
#68
1(
b001010 +
b000101 ,
1-
#69
0(
#70
b001010 $
b000101 %
1&
b001111 '
1(
0-
#71
0(
#72
0&
b000000 '
1(
b001111 .
1/
#73
0(
#74
1(
b000000 .
0/
#75
0(
#76
1(
#77
0(
#78
1(
b10 *
b001111 +
b000011 ,
1-
#79
0(
#80
b10 #
b001111 $
b000011 %
1&
b001100 '
1(
0-
#81
0(
#82
0&
b000000 '
1(
b001100 .
1/
#83
0(
#84
1(
b000000 .
0/
#85
0(
#86
1(
#87
0(
#88
1(
b010000 +
b000010 ,
1-
#89
0(
#90
b010000 $
b000010 %
1&
b001110 '
1(
0-
#91
0(
#92
0&
b000000 '
1(
b001110 .
1/
#93
0(
#94
1(
b000000 .
0/
#95
0(
#96
1(
#97
0(
#98
1(
b01 *
b001101 +
b000001 ,
1-
#99
0(
#100
b01 #
b001101 $
b000001 %
1&
b001110 '
1(
0-
#101
0(
#102
0&
b000000 '
1(
b001110 .
1/
#103
0(
#104
1(
b000000 .
0/
#105
0(
#106
1(
#107
0(
#108
1(
b10 *
b010001 +
b000000 ,
1-
#109
0(
#110
b10 #
b010001 $
b000000 %
1&
b010001 '
1(
0-
#111
0(
#112
0&
b000000 '
1(
b010001 .
1/
#113
0(
#114
1(
b000000 .
0/
#115
0(
#116
1(
#117
0(
#118
1(
#119
0(
#120
1(
#121
0(
#122
1(
#123
0(
#124
1(
#125
0(
#126
1(
#127
0(
#128
1(
b01 *
b010010 +
b000001 ,
1-
#129
0(
#130
b01 #
b010010 $
b000001 %
1&
b010011 '
1(
0-
#131
0(
#132
0&
b000000 '
1(
b010011 .
1/
#133
0(
#134
1(
b000000 .
0/
#135
0(
#136
1(
#137
0(
#138
1(
b010001 +
b000011 ,
1-
#139
0(
#140
b010001 $
b000011 %
1&
b010100 '
1(
0-
#141
0(
#142
0&
b000000 '
1(
b010100 .
1/
#143
0(
#144
1(
b000000 .
0/
#145
0(
#146
1(
#147
0(
#148
1(
#149
0(
#150
1(
#151
0(
#152
1(
#153
0(
#154
1(
#155
0(
#156
1(
#157
0(
#158
1(
b001110 +
b000010 ,
1-
#159
0(
#160
b001110 $
b000010 %
1&
b010000 '
1(
0-
#161
0(
#162
0&
b000000 '
1(
b010000 .
1/
#163
0(
#164
1(
b000000 .
0/
#165
0(
#166
1(
#167
0(
#168
1(
b10 *
b010000 +
b000101 ,
1-
#169
0(
#170
b10 #
b010000 $
b000101 %
1&
b001011 '
1(
0-
#171
0(
#172
0&
b000000 '
1(
b001011 .
1/
#173
0(
#174
1(
b000000 .
0/
#175
0(
#176
1(
#177
0(
#178
1(
b01 *
b001100 +
b000010 ,
1-
#179
0(
#180
b01 #
b001100 $
b000010 %
1&
b001110 '
1(
0-
#181
0(
#182
0&
b000000 '
1(
b001110 .
1/
#183
0(
#184
1(
b000000 .
0/
#185
0(
#186
1(
#187
0(
#188
1(
b10 *
b010000 +
1-
#189
0(
#190
b10 #
b010000 $
1&
b001110 '
1(
0-
#191
0(
#192
0&
b000000 '
1(
b001110 .
1/
#193
0(
#194
1(
b000000 .
0/
#195
0(
#196
1(
#197
0(
#198
1(
b001111 +
b000001 ,
1-
